module github.com/jufracaqui/todo-list

require (
	cloud.google.com/go v0.36.0 // indirect
	dmitri.shuralyov.com/app/changes v0.0.0-20181114035150-5af16e21babb // indirect
	dmitri.shuralyov.com/service/change v0.0.0-20190301072032-c25fb47d71b3 // indirect
	github.com/Shopify/sarama v1.21.0 // indirect
	github.com/coreos/go-systemd v0.0.0-20190212144455-93d5ec2c7f76 // indirect
	github.com/gliderlabs/ssh v0.1.3 // indirect
	github.com/go-logfmt/logfmt v0.4.0 // indirect
	github.com/go-sql-driver/mysql v1.4.1
	github.com/gogo/protobuf v1.2.1 // indirect
	github.com/golang/lint v0.0.0-20190301231843-5614ed5bae6f // indirect
	github.com/golang/protobuf v1.3.0
	github.com/golang/snappy v0.0.1 // indirect
	github.com/google/pprof v0.0.0-20190309163659-77426154d546 // indirect
	github.com/googleapis/gax-go v2.0.2+incompatible // indirect
	github.com/gopherjs/gopherjs v0.0.0-20190309154008-847fc94819f9 // indirect
	github.com/gorilla/mux v1.7.0 // indirect
	github.com/gregjones/httpcache v0.0.0-20190212212710-3befbb6ad0cc // indirect
	github.com/grpc-ecosystem/go-grpc-middleware v1.0.0
	github.com/grpc-ecosystem/grpc-gateway v1.8.2
	github.com/hashicorp/golang-lru v0.5.1 // indirect
	github.com/kisielk/errcheck v1.2.0 // indirect
	github.com/konsorten/go-windows-terminal-sequences v1.0.2 // indirect
	github.com/microcosm-cc/bluemonday v1.0.2 // indirect
	github.com/onsi/ginkgo v1.8.0 // indirect
	github.com/openzipkin/zipkin-go v0.1.5 // indirect
	github.com/pkg/errors v0.8.1 // indirect
	github.com/prometheus/client_model v0.0.0-20190129233127-fd36f4220a90 // indirect
	github.com/prometheus/procfs v0.0.0-20190306233201-d0f344d83b0c // indirect
	github.com/rogpeppe/fastuuid v1.0.0 // indirect
	github.com/russross/blackfriday v2.0.0+incompatible // indirect
	github.com/shurcooL/go v0.0.0-20190121191506-3fef8c783dec // indirect
	github.com/shurcooL/gofontwoff v0.0.0-20181114050219-180f79e6909d // indirect
	github.com/shurcooL/highlight_diff v0.0.0-20181222201841-111da2e7d480 // indirect
	github.com/shurcooL/highlight_go v0.0.0-20181215221002-9d8641ddf2e1 // indirect
	github.com/shurcooL/home v0.0.0-20190204141146-5c8ae21d4240 // indirect
	github.com/shurcooL/htmlg v0.0.0-20190120222857-1e8a37b806f3 // indirect
	github.com/shurcooL/httpfs v0.0.0-20181222201310-74dc9339e414 // indirect
	github.com/shurcooL/issues v0.0.0-20190120000219-08d8dadf8acb // indirect
	github.com/shurcooL/issuesapp v0.0.0-20181229001453-b8198a402c58 // indirect
	github.com/shurcooL/notifications v0.0.0-20181111060504-bcc2b3082a7a // indirect
	github.com/shurcooL/octicon v0.0.0-20181222203144-9ff1a4cf27f4 // indirect
	github.com/shurcooL/reactions v0.0.0-20181222204718-145cd5e7f3d1 // indirect
	github.com/shurcooL/sanitized_anchor_name v1.0.0 // indirect
	github.com/shurcooL/webdavfs v0.0.0-20181215192745-5988b2d638f6 // indirect
	github.com/sirupsen/logrus v1.3.0 // indirect
	github.com/stretchr/testify v1.3.0 // indirect
	go.opencensus.io v0.19.1 // indirect
	go.uber.org/atomic v1.3.2 // indirect
	go.uber.org/multierr v1.1.0 // indirect
	go.uber.org/zap v1.9.1
	go4.org v0.0.0-20190218023631-ce4c26f7be8e // indirect
	golang.org/x/build v0.0.0-20190309003043-4067b185a9c7 // indirect
	golang.org/x/crypto v0.0.0-20190308221718-c2843e01d9a2 // indirect
	golang.org/x/exp v0.0.0-20190306152737-a1d7652674e8 // indirect
	golang.org/x/lint v0.0.0-20190301231843-5614ed5bae6f // indirect
	golang.org/x/net v0.0.0-20190310074541-c10a0554eabf // indirect
	golang.org/x/oauth2 v0.0.0-20190226205417-e64efc72b421 // indirect
	golang.org/x/perf v0.0.0-20190306144031-151b6387e3f2 // indirect
	golang.org/x/sys v0.0.0-20190310054646-10058d7d4faa // indirect
	golang.org/x/time v0.0.0-20190308202827-9d24e82272b4 // indirect
	golang.org/x/tools v0.0.0-20190308174544-00c44ba9c14f // indirect
	google.golang.org/genproto v0.0.0-20190307195333-5fe7a883aa19
	google.golang.org/grpc v1.19.0
	honnef.co/go/tools v0.0.0-20190215041234-466a0476246c // indirect
	sourcegraph.com/sqs/pbtypes v1.0.0 // indirect
)
